COMPSCIX 415.2 Homework 6
…
# create a vector with 10000 NAs
mean_samp <- rep(NA, 10000)

# start a loop
for(i in 1:10000) {
g_samp <- rgamma(30, shape = 1, scale = 2)
mean_samp[i] <- mean(g_samp)
}

#Convert vector to a tibble
mean_samp <- tibble(mean_samp)

mean_samp

## # A tibble: 10,000 x 1
##    mean_samp
##        <dbl>
##  1      1.86
##  2      2.11
##  3      1.84
##  4      1.93
##  5      1.97
##  6      2.12
##  7      2.76
##  8      2.05
##  9      2.16
## 10      1.60
## # ... with 9,990 more rows
…
