COMPSCIX 415.2 Homework 7
…
Lets fill in the blanks.

# When taking a random sample, it is often useful to set a seed so that
# your work is reproducible. Setting a seed will guarantee that the same
# random sample will be generated every time, so long as you always set the
# same seed beforehand
set.seed(29283)
# This data already has an Id column which we can make use of.
# Let's create our training set using sample_frac. Fill in the blank.
train_set <- train %>% sample_frac(0.7)
# Print train set
train_set

## # A tibble: 1,022 x 81
##       Id MSSubClass MSZoning LotFrontage LotArea Street Alley LotShape
##    <int>      <int> <chr>          <int>   <int> <chr>  <chr> <chr>   
##  1    22         45 RM                57    7449 Pave   Grvl  Reg     
##  2   637         30 RM                51    6120 Pave   <NA>  Reg     
##  3   121         80 RL                NA   21453 Pave   <NA>  IR1     
##  4   575         80 RL                70   10500 Pave   <NA>  Reg     
##  5  1423        120 RM                37    4435 Pave   <NA>  Reg     
##  6  1169         70 RL               120   13728 Pave   <NA>  Reg     
##  7  1261         60 RL                NA   24682 Pave   <NA>  IR3     
##  8  1319         20 RL                NA   14781 Pave   <NA>  IR2     
##  9   116        160 FV                34    3230 Pave   Pave  Reg     
## 10  1125         80 RL                NA    9125 Pave   <NA>  IR1     
## # ... with 1,012 more rows, and 73 more variables: LandContour <chr>,
## #   Utilities <chr>, LotConfig <chr>, LandSlope <chr>, Neighborhood <chr>,
## #   Condition1 <chr>, Condition2 <chr>, BldgType <chr>, HouseStyle <chr>,
## #   OverallQual <int>, OverallCond <int>, YearBuilt <int>,
## #   YearRemodAdd <int>, RoofStyle <chr>, RoofMatl <chr>,
## #   Exterior1st <chr>, Exterior2nd <chr>, MasVnrType <chr>,
## #   MasVnrArea <int>, ExterQual <chr>, ExterCond <chr>, Foundation <chr>,
## #   BsmtQual <chr>, BsmtCond <chr>, BsmtExposure <chr>,
## #   BsmtFinType1 <chr>, BsmtFinSF1 <int>, BsmtFinType2 <chr>,
…
# let's create our testing set using the Id column. Fill in the blanks.
test_set <- train %>% filter(!(train$Id %in% train_set$Id))
# Print test set
test_set

## # A tibble: 438 x 81
##       Id MSSubClass MSZoning LotFrontage LotArea Street Alley LotShape
##    <int>      <int> <chr>          <int>   <int> <chr>  <chr> <chr>   
##  1     1         60 RL                65    8450 Pave   <NA>  Reg     
##  2     2         20 RL                80    9600 Pave   <NA>  Reg     
##  3     3         60 RL                68   11250 Pave   <NA>  IR1     
##  4     4         70 RL                60    9550 Pave   <NA>  IR1     
##  5    14         20 RL                91   10652 Pave   <NA>  IR1     
##  6    23         20 RL                75    9742 Pave   <NA>  Reg     
##  7    27         20 RL                60    7200 Pave   <NA>  Reg     
##  8    38         20 RL                74    8532 Pave   <NA>  Reg     
##  9    40         90 RL                65    6040 Pave   <NA>  Reg     
## 10    42         20 RL               115   16905 Pave   <NA>  Reg     
## # ... with 428 more rows, and 73 more variables: LandContour <chr>,
## #   Utilities <chr>, LotConfig <chr>, LandSlope <chr>, Neighborhood <chr>,
## #   Condition1 <chr>, Condition2 <chr>, BldgType <chr>, HouseStyle <chr>,
## #   OverallQual <int>, OverallCond <int>, YearBuilt <int>,
## #   YearRemodAdd <int>, RoofStyle <chr>, RoofMatl <chr>,
## #   Exterior1st <chr>, Exterior2nd <chr>, MasVnrType <chr>,
## #   MasVnrArea <int>, ExterQual <chr>, ExterCond <chr>, Foundation <chr>,
## #   BsmtQual <chr>, BsmtCond <chr>, BsmtExposure <chr>,
## #   BsmtFinType1 <chr>, BsmtFinSF1 <int>, BsmtFinType2 <chr>,
…
