COMPSCIX 415.2 Homework 8
…
3.2 Split the data to training set and test set

Exercise 2

Our first step is to randomly split the data into train and test datasets. We will use a 70/30 split, and use the random seed of 29283 so that we all should get the same training and test set.

Answer:

set.seed(29283)
# Let's create our training set using sample_frac.
train_set <- train %>% sample_frac(0.7)
# Print train set
train_set

## # A tibble: 624 x 14
##    PassengerId Survived Pclass Name  Sex     Age SibSp Parch Ticket   Fare
##          <int>    <int>  <int> <chr> <chr> <dbl> <int> <int> <chr>   <dbl>
##  1          13        0      3 Saun male   20.0     0     0 A/5.    8.05
##  2         389        0      3 Sadl male   NA       0     0 367655   7.73
##  3          74        0      3 Chro male   26.0     1     0 2680    14.5 
##  4         351        0      3 Odah male   23.0     0     0 7267     9.22
##  5         867        1      2 Dura fema  27.0     1     0 SC/PA  13.9 
##  6         712        0      1 Klab male   NA       0     0 113028  26.6 
##  7         768        0      3 Mang fema  30.5     0     0 364850   7.75
##  8         803        1      1 Cart male   11.0     1     2 113760 120   
##  9          71        0      2 Jenk male   32.0     0     0 C.A.   10.5 
## 10         684        0      3 Good male   14.0     5     2 CA 21  46.9 
## # ... with 614 more rows, and 4 more variables: Cabin <chr>,
## #   Embarked <chr>, Survived_Category <chr>, Pclass_Category <chr>

# let's create our testing set using the PassangerId column. Fill in the blanks.
test_set <- train %>% filter(!(train$PassengerId %in% train_set$PassengerId))
# Print test set
test_set

## # A tibble: 267 x 14
##    PassengerId Survived Pclass Name  Sex     Age SibSp Parch Ticket   Fare
##          <int>    <int>  <int> <chr> <chr> <dbl> <int> <int> <chr>   <dbl>
##  1           1        0      3 Brau male  22.0      1     0 A/5 2   7.25
##  2           2        1      1 Cumi fema 38.0      1     0 PC 17  71.3 
##  3           5        0      3 Alle male  35.0      0     0 373450   8.05
##  4          12        1      1 Bonn fema 58.0      0     0 113783  26.6 
##  5          19        0      3 Vand fema 31.0      1     0 345763  18.0 
##  6          23        1      3 "McG fema 15.0      0     0 330923   8.03
##  7          25        0      3 Pals fema  8.00     3     1 349909  21.1 
##  8          28        0      1 Fort male  19.0      3     2 19950  263   
##  9          30        0      3 Todo male  NA        0     0 349216   7.90
## 10          33        1      3 Glyn fema NA        0     0 335677   7.75
## # ... with 257 more rows, and 4 more variables: Cabin <chr>,
## #   Embarked <chr>, Survived_Category <chr>, Pclass_Category <chr>
…
