COMPSCIX 415.2 Homework 5/Midterm
…
We can do this using code below.

mutate(diamonds, price_per_carat <- price / carat)

3. For each cut of diamond in the diamonds data set, how many diamonds, and what proportion, have a price > 10000 and a carat < 1.5? There are several ways to get to an answer, but your solution must use the data wrangling verbs from the tidyverse in order to get credit.

Do the results make sense? Why?

Do we need to be wary of any of these numbers? Why?

Answer

filter(diamonds, price > 10000, carat < 1.5)

## # A tibble: 834 x 10
##    carat cut       color clarity depth table price     x     y     z
##    <dbl> <ord>     <ord> <ord>   <dbl> <dbl> <int> <dbl> <dbl> <dbl>
##  1  1.03 Ideal     E     VVS2     60.6  59.0 10003  6.50  6.53  3.95
##  2  1.23 Very Good G     VVS2     60.6  55.0 10004  6.93  7.02  4.23
##  3  1.25 Ideal     F     VS2      61.6  55.0 10006  6.93  6.96  4.28
##  4  1.21 Very Good F     VS1      62.3  58.0 10009  6.76  6.85  4.24
##  5  1.01 Fair      D     SI2      64.6  58.0 10011  6.25  6.20  4.02
##  6  1.05 Ideal     F     VVS2     60.5  55.0 10011  6.67  6.58  4.01
##  7  1.35 Premium   G     VS1      62.1  59.0 10012  7.06  7.02  4.37
##  8  1.13 Ideal     F     VS1      60.9  57.0 10016  6.73  6.76  4.11
##  9  1.21 Premium   F     VS1      62.6  59.0 10018  6.81  6.76  4.25
## 10  1.01 Very Good F     VVS1     62.9  57.0 10019  6.35  6.41  4.01
## # ... with 824 more rows
…
6. Looking at only the cities and months with greater than 500 sales:

Are the distributions of the median sales price (column name median), when grouped by city, different? The same? Show your work.

Any cities that stand out that youd want to investigate further?

Why might we want to filter out all cities and months with sales less than 500?

Answer

To do the EDA on txhousing data, take a quick look at the table. We can use ?txhousing for help to understand the variabls.

txhousing

## # A tibble: 8,602 x 9
##    city     year month sales   volume median listings inventory  date
##    <chr>   <int> <int> <dbl>    <dbl>  <dbl>    <dbl>     <dbl> <dbl>
##  1 Abilene  2000     1  72.0  5380000  71400      701      6.30  2000
##  2 Abilene  2000     2  98.0  6505000  58700      746      6.60  2000
##  3 Abilene  2000     3 130    9285000  58100      784      6.80  2000
##  4 Abilene  2000     4  98.0  9730000  68600      785      6.90  2000
##  5 Abilene  2000     5 141   10590000  67300      794      6.80  2000
##  6 Abilene  2000     6 156   13910000  66900      780      6.60  2000
##  7 Abilene  2000     7 152   12635000  73500      742      6.20  2000
##  8 Abilene  2000     8 131   10710000  75000      765      6.40  2001
##  9 Abilene  2000     9 104    7615000  64500      771      6.50  2001
## 10 Abilene  2000    10 101    7040000  59300      764      6.60  2001
## # ... with 8,592 more rows

From the above result, we see its a dataset of 9 variables with 8602 observations. Now we will do the analysis to answer the above questions.

1. During what time period is this data from?

arrange(txhousing, year, month)

## # A tibble: 8,602 x 9
##    city          year month  sales  volume median listings inventory  date
##    <chr>        <int> <int>  <dbl>   <dbl>  <dbl>    <dbl>     <dbl> <dbl>
##  1 Abilene       2000     1   72.0  5.38e6  71400      701      6.30  2000
##  2 Amarillo      2000     1  102    8.86e6  80000      972      5.30  2000
##  3 Arlington     2000     1  241    2.62e7  94000     1417      3.70  2000
##  4 Austin        2000     1 1025    1.73e8 133700     3084      2.00  2000
##  5 Bay Area      2000     1  244    2.93e7 100700     1766      4.30  2000
##  6 Beaumont      2000     1   97.0  1.01e7  82100      876      6.10  2000
##  7 Brazoria Co~  2000     1   55.0  5.24e6  74400      512      5.90  2000
##  8 Brownsville   2000     1   NA   NA          NA      400      9.10  2000
##  9 Bryan-Colle~  2000     1   61.0  5.61e6  77900      498      4.20  2000
## 10 Collin Coun~  2000     1  464    9.48e7 158700     2844      4.00  2000
## # ... with 8,592 more rows

arrange(txhousing, desc(year), desc(month))

## # A tibble: 8,602 x 9
##    city          year month sales   volume median listings inventory  date
##    <chr>        <int> <int> <dbl>    <dbl>  <dbl>    <dbl>     <dbl> <dbl>
##  1 Abilene       2015     7   268   4.58e7 148700      986      5.00  2016
##  2 Amarillo      2015     7   354   6.23e7 149700     1247      4.50  2016
##  3 Arlington     2015     7   605   1.25e8 178900      752      1.70  2016
##  4 Austin        2015     7  3466   1.15e9 264600     7913      3.00  2016
##  5 Bay Area      2015     7   849   1.97e8 200800     2144      3.20  2016
##  6 Beaumont      2015     7   318   5.29e7 139300     1561      6.40  2016
##  7 Brazoria Co~  2015     7    NA  NA          NA       NA     NA     2016
##  8 Brownsville   2015     7    NA  NA          NA       NA     NA     2016
##  9 Bryan-Colle~  2015     7   414   9.04e7 190700      894      3.30  2016
## 10 Collin Coun~  2015     7  1861   6.14e8 292600     2809      2.10  2016
## # ... with 8,592 more rows
…
## # A tibble: 1 x 1
##       n
##   <int>
## 1    46

There are 46 cities represented in txhousing dataset.

3. Which city, month and year had the highest number of sales?

In this dataset sales variable represents the number of sales. So we arrange the dataset in descending order by sales.

arrange(txhousing, desc(sales))

## # A tibble: 8,602 x 9
##    city     year month sales     volume median listings inventory  date
##    <chr>   <int> <int> <dbl>      <dbl>  <dbl>    <dbl>     <dbl> <dbl>
##  1 Houston  2015     7  8945 2568156780 217600    23875      3.40  2016
##  2 Houston  2006     6  8628 1795898108 155200    36281      5.60  2006
##  3 Houston  2013     7  8468 2168720825 187800    21497      3.30  2014
##  4 Houston  2015     6  8449 2490238594 222400    22311      3.20  2015
##  5 Houston  2013     5  8439 2121508529 186100    20526      3.30  2013
##  6 Houston  2014     6  8391 2342443127 211200    19725      2.90  2014
##  7 Houston  2014     7  8391 2278932511 199700    20214      3.00  2014
##  8 Houston  2014     8  8167 2195184825 202400    20007      2.90  2015
##  9 Houston  2013     8  8155 2083377894 186700    21366      3.30  2014
## 10 Houston  2006     5  8040 1602621368 151200    35398      5.50  2006
## # ... with 8,592 more rows
…
6. Looking at only the cities and months with greater than 500 sales:

Are the distributions of the median sales price (column name median), when grouped by city, different? The same? Show your work.

Any cities that stand out that youd want to investigate further?

Why might we want to filter out all cities and months with sales less than 500?

First filter out the months with less than or equal to 500 as we are going to look at only the cities and months with greater than 500 sales.

newtxhousing <- filter(txhousing, sales > 500)

newtxhousing

## # A tibble: 1,883 x 9
##    city       year month sales   volume median listings inventory  date
##    <chr>     <int> <int> <dbl>    <dbl>  <dbl>    <dbl>     <dbl> <dbl>
##  1 Arlington  2000     8   507 60875199 103400     1417      3.50  2001
##  2 Arlington  2001     5   536 69878959 114400     1592      3.70  2001
##  3 Arlington  2001     6   534 67744182 108500     1627      3.80  2001
##  4 Arlington  2001     8   505 65080743 113600     1616      3.70  2002
##  5 Arlington  2002     5   503 67240236 116100     1741      3.90  2002
##  6 Arlington  2002     7   509 66954143 119100     1925      4.40  2002
##  7 Arlington  2003     5   502 67131982 118000     2544      5.90  2003
##  8 Arlington  2003     7   524 73194692 123500     2799      6.50  2004
##  9 Arlington  2003     8   531 72397143 123900     2801      6.40  2004
## 10 Arlington  2004     5   527 72401436 118300     2922      6.50  2004
## # ... with 1,873 more rows
…
Looking at the above plot, we can see the some of the cities (I guess big cities like Houston) has more sales than other cities.

#OutVals = boxplot(newtxhousing$sales)$out
#which(newtxhousing %in% OutVals)

OutVals <- tibble(boxplot(newtxhousing$median, plot=FALSE)$out)

OutVals[1]

## # A tibble: 56 x 1
##    `boxplot(newtxhousing$median, plot = FALSE)$out`
##                                               <dbl>
##  1                                           248900
##  2                                           246900
##  3                                           245700
##  4                                           245300
##  5                                           253900
##  6                                           270300
##  7                                           271200
##  8                                           270200
##  9                                           264600
## 10                                           252600
## # ... with 46 more rows
…
